{
	"extensionName": {
                "message":      "TU lAma - let Alma be more adroit"
        },
        "extensionDesc": {
                "message":      "Expand List of IDs, ISBNs with Ctrl-Alt-Y to 'Advanced Search'.\n\nSelect last used location after login.\n\nItem template\n\nDynamic bookmarklets.\n\nMarc21 Syntax Highlighting ..."
        },
        "general": {
                "message":      "General"
        },
	"selectLocation": {
                "message":      "Select last used location"
        },
        "selLocWarn": {
                "message":      ""
        },
	"selectLocationIP": {
                "message":      "Select location by local IP-address"
        },
        "selLocIpWarn": {
                "message":      "<br/>(JSON: {\u0022IP4\u0022: \u0022Alma-Loc-ID\u0022,...} )"
        },
	"keepCatLevel": {
                "message":	"Keep current cataloging level"
	},
	"addLinks": {
                "message":      "Show direkt links to items in MD-Editor and Simple-Record-View"
        },
	"goto1stEmpty": {
		"message":	"Goto first empty Field in MD-editor"
	},
	"checkBug00576546": {
                "message":      "Check for bug 00576546:"
        },
        "checkBug00576546Warn": {
                "message":      "Local fields missing in network-records when pushing set to MD-Editor"
        },
	"loansUrl": {
                "message":      "URL for loans per items (PHYSIID[])"
        },
        "loansUrlWarning": {
                "message":      ""
        },
	"tuwsysUrl": {
                "message":      "URL for TU-Classification autocomplete"
        },
        "bmsUrl": {
                "message":      "URL for dynamic bookmarklets"
        },
        "bmsUrlWarning": {
                "message":      ""
        },
	"bmsCats": {
                "message":      "Disabled bookmarklet categories"
        },
        "bmsCatsWarning": {
                "message":      "Use Ctrl for multiple selection"
        },
        "lockPriKey": {
                "message":      "Signing key for encryption (base64)"
        },
	"lockprikeywarning": {
                "message":      " "
        },
        "unlockPriKey": {
                "message":      "Decryption key (base64)"
        },
	"unlockprikeywarning": {
                "message":      " "
        },
        "theses": {
                "message":      "Theses"
	},
	"Save": {
		"message":	"Save"
	},
        "physicalItems": {
                "message":      "Physical items"
        },
        "bib_mms": {
		"message":      "All titles"
        },
        "holding": {
                "message":      "Physical titles"
        },
	"Item-Editor": {
                "message":      "Item-Editor"
        },
	"templateName": {
                "message":      "Name of template for \"Expand from template\" with <b>Ctrl-Alt-T</b>"
        },
	"itemPolicy": {
		"message":	"Item Policy for <b>Ctrl-Alt-C</b> in 'Physical Item Editor'<br/>Settings with <b>Shift-Ctrl-Alt-C</b>"
	},
	"processType": {
		"message":	"Process Type for <b>Ctrl-Alt-B</b> in 'Physical Item Editor'<br/>Settings with <b>Shift-Ctrl-Alt-B</b>"
	},
	"itemTemplate": {
                "message":      "<b>Ctrl-Alt-T</b> Default values for new items<br/>Settings with <b>Shift-Ctrl-Alt-T</b>"
        },
        "showOrderNow": {
                "message":      "In order summary: 'order now' always visible"
        },
	"colorScheme": {
		"message":	"Marc21 Syntax Highlighting Colorscheme"
	},
	"overwriteAlmaColors": {
		"message":      "override Alma Colors"
	},
	"highContrast" : {
                "message":      "High contrast, really black font."
        },
	"debugLevel" : {
                "message":      "debug Level"
        },
	"add852c": {
                "message":      "replace empty shelving location (852_8_c) with"
        },
        "addPf": {
                "message":      "Add Portfolio"
        },
        "addPortfolio": {
                "message":      "Add Portfolio Button"
        },
        "processSlip": {
                "message":      "Process Slip"
        },
        "apiURL": {
                "message":      "Alma API URL"
        },
        "apiKey": {
                "message":      "Alma API-Key"
        },
        "processSlipWarn": {
                "message":      "<br/>added to the ›more actions‹ menue for items"
        },
        "apiURLWarn": {
                "message":      "<br/>https://api-eu.hosted.exlibrisgroup.com"
        },
        "apiKeyWarn": {
                "message":      "(Bibs/ro)"
        },
        "unchanged": {
                "message":      "unchanged"
        }
}
